{
  "menu": [
    {
      "url": "/",
      "name": "Dashboard",
      "slug": "admin.dashboard",
      "icon": "desktop",
      "role": "Admin"
    },
    {
      "url": "/",
      "name": "Trainers",
      "slug": "admin.dashboard",
      "icon": "desktop",
      "role": "Admin"
    },
    {
      "url": "/",
      "name": "Customers",
      "slug": "admin.dashboard",
      "icon": "desktop",
      "role": "Admin"
    },
    {
      "url": "https://pixinvent.ticksy.com/",
      "name": "Raise Support",
      "slug": "raise-support",
      "icon": "help",
      "newTab":"_blank",
      "role": "Admin"
    },
    {
      "url": "https://pixinvent.com/demo/frest-clean-bootstrap-admin-dashboard-template/documentation",
      "name": "Documentation",
      "slug": "documentation",
      "icon": "morph-folder",
      "newTab":"_blank",
      "role": "Admin"
    }
  ]
}
